<?xml version="1.0" standalone="yes"?>
<svg xmlns="http://www.w3.org/2000/svg" width="312" height="312">
<path style="fill:#436d54; stroke:none;" d="M0 0L0 312L312 312L312 0L0 0z"/>
<path style="fill:#d8eaf3; stroke:none;" d="M225 289L229 287C241.194 285.989 255.511 270.991 264.015 262.91C298.13 230.488 313.946 181.284 307.711 135C305.303 117.12 299.644 99.7456 290.86 84C234.897 -16.3159 86.4512 -21.2123 24.5872 76C6.87596 103.831 -0.829057 137.898 2.22839 170.715C9.51844 248.96 77.8481 304.516 154 306.014C172.377 306.375 189.547 303.943 207 297.997C212.708 296.053 221.407 294.073 225 289z"/>
<path style="fill:#fe973b; stroke:none;" d="M140.667 5.33334L141.333 5.66666L140.667 5.33334M169.667 5.33334L170.333 5.66666L169.667 5.33334M172 5L173 6L172 5z"/>
<path style="fill:#1694b2; stroke:none;" d="M136 6L137 7L136 6z"/>
<path style="fill:#fe973b; stroke:none;" d="M179 6L180 7L179 6M125.667 7.33334L126.333 7.66666L125.667 7.33334M183 7L184 8L183 7M189.667 8.33334L190.333 8.66666L189.667 8.33334M116 9L117 10L116 9M112.667 10.3333L113.333 10.6667L112.667 10.3333M197 10L198 11L197 10M109 11L110 12L109 11z"/>
<path style="fill:#1694b2; stroke:none;" d="M199 11L200 12L199 11z"/>
<path style="fill:#fe973b; stroke:none;" d="M106 12L107 13L106 12M204 12L205 13L204 12M212 15L213 16L212 15M88 19L89 20L88 19M223 20L224 21L223 20M227 22L228 23L227 22M79 24L80 25L79 24M77 25L78 26L77 25M75 26L76 27L75 26M69 30L70 31L69 30M66 32L67 33L66 32M245 33L246 34L245 33M62 35L63 36L62 35M248 35L249 36L248 35M58 38L59 39L58 38M53 42L54 43L53 42M52 43L53 44L52 43M50 45L51 46L50 45M260 45L261 46L260 45M261 46L262 47L261 46M265 50L266 51L265 50M269 54L270 55L269 54M271 56L272 57L271 56M38 57L39 58L38 57M275 61L276 62L275 61M276 62L277 63L276 62M33 63L34 64L33 63M279 66L280 67L279 66M28 70L29 71L28 70M282 70L283 71L282 70M284 73L285 74L284 73M25 74L26 75L25 74M24 76L25 77L24 76M286 76L287 77L286 76M23 77L24 78L23 77M22 79L23 80L22 79M290 83L291 84L290 83M291 85L292 86L291 85M18 86L19 87L18 86M17 88L18 89L17 88z"/>
<path style="fill:#436d54; stroke:none;" d="M66.0432 89.7469C56.5931 92.0173 60.5805 105.957 69.9807 103.677C78.6943 101.564 74.7428 87.6568 66.0432 89.7469z"/>
<path style="fill:#1694b2; stroke:none;" d="M69 89L70 90L69 89z"/>
<path style="fill:#fe973b; stroke:none;" d="M143 89L144 90L143 89z"/>
<path style="fill:#f74d9d; stroke:none;" d="M144.015 89.7577C134.835 91.2852 137.459 105.827 146.985 103.667C155.921 101.64 152.843 88.2889 144.015 89.7577z"/>
<path style="fill:#fe973b; stroke:none;" d="M146.667 89.3333L147.333 89.6667L146.667 89.3333M186.015 89.7824C176.969 92.8825 181.043 106.905 189.981 104.164C199.104 101.366 195.324 86.5926 186.015 89.7824z"/>
<path style="fill:#1694b2; stroke:none;" d="M230.015 89.6667C220.771 91.5748 223.696 106.295 232.985 104.242C242.196 102.207 239.348 87.7402 230.015 89.6667z"/>
<path style="fill:#fe973b; stroke:none;" d="M149 90L150 91L149 90M151 92L152 93L151 92M138 93L139 94L138 93z"/>
<path style="fill:#1694b2; stroke:none;" d="M60 94L61 95L60 94z"/>
<path style="fill:#fe973b; stroke:none;" d="M152 94L153 95L152 94M296 95L297 96L296 95z"/>
<path style="fill:#1694b2; stroke:none;" d="M75.3333 96.6667L75.6667 97.3333L75.3333 96.6667z"/>
<path style="fill:#fe973b; stroke:none;" d="M137.333 96.6667L137.667 97.3333L137.333 96.6667M13 97L14 98L13 97M12 99L13 100L12 99M152 99L153 100L152 99z"/>
<path style="fill:#1694b2; stroke:none;" d="M12 100L13 101L12 100z"/>
<path style="fill:#fe973b; stroke:none;" d="M138 100L139 101L138 100M298 100L299 101L298 100M151 101L152 102L151 101M150 102L151 103L150 102M299 102L300 103L299 102z"/>
<path style="fill:#1694b2; stroke:none;" d="M11 103L12 104L11 103z"/>
<path style="fill:#fe973b; stroke:none;" d="M141 103L142 104L141 103M149 103L150 104L149 103z"/>
<path style="fill:#1694b2; stroke:none;" d="M66 104L66 105L69 105L66 104z"/>
<path style="fill:#fe973b; stroke:none;" d="M143 104L143 105L148 105L143 104M300 105L301 106L300 105M9 107L10 108L9 107M8 110L9 111L8 110z"/>
<path style="fill:#1694b2; stroke:none;" d="M41 112L42 113L41 112z"/>
<path style="fill:#436d54; stroke:none;" d="M49 134L50 134C52.625 139.549 59.7289 154.533 66.0926 156.11C73.0336 157.829 83.272 138.413 85 133L86 133L86 149C86 154.876 84.4416 163.446 86.7423 168.941C88.4247 172.96 94.1837 174.209 96.2577 169.772C98.0345 165.97 97 160.096 97 156L97 125C96.9997 120.565 97.8975 113.555 91.9846 112.542C84.8896 111.328 79.4358 124.19 76.4244 129C73.5381 133.61 70.3262 138.083 68 143C62.4213 135.741 57.8925 127.695 52.946 120.001C50.9071 116.829 48.3166 112.457 44.0116 112.457C36.2094 112.457 38 124.016 38 129C38 139.925 34.1126 159.866 38.7423 169.772C40.8163 174.209 46.5753 172.96 48.2577 168.941C50.3535 163.935 49 156.342 49 151L49 134z"/>
<path style="fill:#1694b2; stroke:none;" d="M46 112L47 113L46 112M88 112L89 113L88 112M93 112L94 113L93 112M188 131L189 131C190.492 137.448 192.871 143.736 195.003 150C197.012 155.903 199.767 172.221 207.015 173.458C212.583 174.408 214.578 168.063 216 164C219.969 152.659 223.93 141.285 228.053 130C229.547 125.912 235.252 115.339 228.772 112.786C223.361 110.654 221.137 117.216 219.831 121C215.947 132.252 212.821 144.124 208 155C203.605 145.084 200.764 134.29 197.333 124C196.089 120.269 195.104 114.16 190.892 112.623C185.772 110.754 182.784 116.055 181.349 120C177.128 131.601 172.782 143.975 170 156C164.515 145.591 161.74 133.153 158 122C156.756 118.291 155.151 111.946 150.015 112.466C142.244 113.253 146.596 122.883 147.997 127C152.494 140.214 155.978 159.402 164.086 170.772C170.058 179.146 175.936 168.165 177.667 163C179.23 158.335 180.736 153.649 182.344 149C184.389 143.09 187.071 137.202 188 131z"/>
<path style="fill:#fe973b; stroke:none;" d="M7 114L8 115L7 114z"/>
<path style="fill:#1694b2; stroke:none;" d="M38 115L39 116L38 115M85 115L86 116L85 115z"/>
<path style="fill:#fe973b; stroke:none;" d="M304 118L305 119L304 118M5.33333 121.667L5.66667 122.333L5.33333 121.667z"/>
<path style="fill:#1694b2; stroke:none;" d="M81 121L82 122L81 121M123 126L124 127L123 126z"/>
<path style="fill:#436d54; stroke:none;" d="M114 154C120.899 154 140.182 157.334 145.258 152.258C148.75 148.765 146.459 141.742 144.672 138.001C139.822 127.847 127.269 123.837 117 128.002C94.8727 136.974 101.613 170.728 124 173.696C128.755 174.326 148.356 170.811 142.953 162.333C140.164 157.957 132.603 164.107 129 164.656C121.529 165.794 116.73 160.207 114 154z"/>
<path style="fill:#1694b2; stroke:none;" d="M241 154C247.955 154 267.624 157.361 272.397 151.682C275.63 147.834 273.17 140.829 271.084 137.004C265.661 127.059 253.071 123.89 243 128.363C220.607 138.309 229.308 171.656 252 173.823C256.77 174.278 275.075 170.515 269.953 162.323C267.069 157.711 259.671 163.847 256 164.506C248.369 165.876 243.439 160.543 241 154z"/>
<path style="fill:#fe973b; stroke:none;" d="M306.333 127.667L306.667 128.333L306.333 127.667z"/>
<path style="fill:#1694b2; stroke:none;" d="M138 130L139 131L138 130M111 131L112 132L111 131z"/>
<path style="fill:#fe973b; stroke:none;" d="M3 132L4 133L3 132z"/>
<path style="fill:#1694b2; stroke:none;" d="M74 132L75 133L74 132z"/>
<path style="fill:#fe973b; stroke:none;" d="M307.333 132.667L307.667 133.333L307.333 132.667z"/>
<path style="fill:#1694b2; stroke:none;" d="M85 133L86 134L85 133M108 134L109 135L108 134M62 135L63 136L62 135M72 135L73 136L72 135z"/>
<path style="fill:#d8eaf3; stroke:none;" d="M114 147L137 146C132.288 132.518 116.749 131.822 114 147M241 147L263 147C262.138 131.26 243.203 132.367 241 147z"/>
<path style="fill:#1694b2; stroke:none;" d="M106 137L107 138L106 137M118 137L119 138L118 137M132 137L133 138L132 137M144 137L145 138L144 137z"/>
<path style="fill:#fe973b; stroke:none;" d="M2.33333 138.667L2.66667 139.333L2.33333 138.667z"/>
<path style="fill:#1694b2; stroke:none;" d="M64 138L65 139L64 138M70 138L71 139L70 138M117 138L118 139L117 138M133 138L134 139L133 138M105 139L106 140L105 139M145 139L146 140L145 139M115 141L116 142L115 141M79 142L80 143L79 142M104 142L105 143L104 142M146 142L147 143L146 142z"/>
<path style="fill:#fe973b; stroke:none;" d="M308 142L309 143L308 142z"/>
<path style="fill:#1694b2; stroke:none;" d="M136 144L137 145L136 144M77 145L78 146L77 145M103 146L104 147L103 146M136 146L137 147L136 146M58 147L59 148L58 147M75 148L76 149L75 148M73 151L74 152L73 151M146 151L147 152L146 151M103.333 152.667L103.667 153.333L103.333 152.667M71 154L72 155L71 154M70 155L71 156L70 155M114 155L115 156L114 155M138 160L139 161L138 160M106 162L107 163L106 162M135 162L136 163L135 162M123 164L124 165L123 164M130 164L131 165L130 164M144 164L145 165L144 164M108 165L109 166L108 165M109 166L110 167L109 166M111 168L112 169L111 168z"/>
<path style="fill:#fe973b; stroke:none;" d="M308 168L308 172L309 172L308 168z"/>
<path style="fill:#1694b2; stroke:none;" d="M86 169L87 170L86 169M114 170L115 171L114 170z"/>
<path style="fill:#fe973b; stroke:none;" d="M2 171L3 172L2 171z"/>
<path style="fill:#1694b2; stroke:none;" d="M137 171L138 172L137 171M130 173L131 174L130 173z"/>
<path style="fill:#fe973b; stroke:none;" d="M307 177L308 178L307 177M306.333 182.667L306.667 183.333L306.333 182.667M4 183L5 184L4 183M4 185L5 186L4 185z"/>
<path style="fill:#1694b2; stroke:none;" d="M32 188L32 189L36 189L36 201L38 201L38 189L42 189L32 188M44 188L44 202L45 202C45.0536 197.461 45.2976 194.428 50 193L50 201L51 201L51 192L45 193L44 188M70 188L70 202L71 202L71 191L72 191L80 202L80 188L79 188L79 199L78 199L70 188M125 202L126 202L126 195L120 195L120 196L125 196C116.833 205.766 111.501 185.743 126 192C120.405 185.284 110.163 190.749 115.179 198.721C117.694 202.719 121.895 200.19 125 202M163 196C160.521 200.44 157.933 198.871 154 197C155.592 199.725 163.364 204.678 163.364 198C163.364 195.599 152.057 185.791 164 192C159.582 183.989 149.948 193.252 163 196M187.667 188.333L188.333 188.667L187.667 188.333M202 188L202 202L203 202L202 188M211 188L211 201L213 201L213 191L214 191L222 201L222 188L221 188L221 199L220 199L211 188M271 188L270 201L273 196L278 201L274 196L274 195L277 192L272 195L271 188z"/>
<path style="fill:#fe973b; stroke:none;" d="M305 188L306 189L305 188M5 189L6 190L5 189z"/>
<path style="fill:#1694b2; stroke:none;" d="M103 189C102.519 193.506 101.859 199.316 106 202L103 189M235 189C234.521 193.489 233.998 199.173 238 202L235 189M62 198L55 197L62 197C61.1934 193.304 55.7791 189.364 54.3372 195.144C52.8471 201.118 59.2265 202.695 62 198M91 198L84 197L91 197C90.0349 192.577 83.9613 189.797 83.287 196.043C82.6546 201.903 88.5635 202.124 91 198M94 192L93 202L96 198L98 198L100 202L101 202L101 192L98 195L96 195L94 192M137 198L130 197L137 197C136.193 193.304 130.779 189.364 129.337 195.144C127.813 201.253 134.074 202.453 137 198M139 192L139 202L140 202C140.281 193.35 145.896 193.181 146 202C148.801 195.323 145.584 192.078 139 192M167.603 193.032C163.676 196.059 167.999 203.804 172.563 200.214C176.927 196.782 172.048 189.607 167.603 193.032M185 198C178.13 200.369 177.326 193.14 184 195C176.814 183.954 174.323 209.743 185 198M187 192L187 201L189 201L189 192L187 192M192 195L193 195L198 194C196.81 197.856 196.204 199.4 192 200L193 196L192 196C191.234 201.229 194.558 201.419 199 201C198.985 196.623 196.595 187.935 192 195M233 198L226 200L226 197L233 197C227.76 179.74 221.007 212 233 198M240 192L244 201L246 195L248 202L249 202L252 192L251 192L249 199L248 199L247 192L243 199L242 199L240 192M255.318 193.047C250.982 195.737 255.059 202.929 259.567 200.573C264.31 198.095 260.163 190.041 255.318 193.047M264 192L264 201L265 201L269 193L269 192L264 192z"/>
<path style="fill:#fe973b; stroke:none;" d="M304.333 192.667L304.667 193.333L304.333 192.667z"/>
<path style="fill:#d8eaf3; stroke:none;" d="M55 196L61 196C59.0419 193.006 56.9581 193.006 55 196M84 196L90 196C88.0419 193.006 85.9581 193.006 84 196M130 196L136 196C134.042 193.006 131.958 193.006 130 196M168.589 194.086C165.925 195.986 168.466 201.015 171.411 198.914C174.075 197.014 171.534 191.985 168.589 194.086M226 196L232 196C229.904 193.12 227.977 192.94 226 196M256.318 194.175C252.953 195.894 256.354 201.026 259.243 198.914C261.778 197.062 259.158 192.725 256.318 194.175z"/>
<path style="fill:#1694b2; stroke:none;" d="M107 196L107 197L112 197L107 196z"/>
<path style="fill:#fe973b; stroke:none;" d="M303.333 196.667L303.667 197.333L303.333 196.667M7 197L8 198L7 197z"/>
<path style="fill:#1694b2; stroke:none;" d="M302 198L303 199L302 198z"/>
<path style="fill:#fe973b; stroke:none;" d="M302 199L303 200L302 199M301 203L302 204L301 203M300 205L301 206L300 205M10 206L11 207L10 206M299 208L300 209L299 208M297 213L298 214L297 213M296 215L297 216L296 215M14 216L15 217L14 216M15 218L16 219L15 218M16 220L17 221L16 220M294 220L295 221L294 220M18 224L19 225L18 224M19 226L20 227L19 226M20 228L21 229L20 228M289 229L290 230L289 229z"/>
<path style="fill:#1694b2; stroke:none;" d="M283 238L284 239L283 238z"/>
<path style="fill:#fe973b; stroke:none;" d="M29 242L30 243L29 242M276 248L277 249L276 248M36 251L37 252L36 251M274 251L275 252L274 251M37 252L38 253L37 252M273 252L274 253L273 252M41 257L42 258L41 257M44 260L45 261L44 260M45 261L46 262L45 261M259 266L260 267L259 266M54 269L55 270L54 269M256 269L257 270L256 269M255 270L256 271L255 270M56 271L57 272L56 271M251 273L252 274L251 273M60 274L61 275L60 274M250 274L251 275L250 274M64 277L65 278L64 277M67 279L68 280L67 279M70 281L71 282L70 281M240 281L241 282L240 281M235 284L236 285L235 284M232 286L233 287L232 286M80 287L81 288L80 287z"/>
<path style="fill:#1694b2; stroke:none;" d="M229 287L230 288L229 287M225 289L226 290L225 289z"/>
<path style="fill:#fe973b; stroke:none;" d="M88 291L89 292L88 291M222 291L223 292L222 291M94 294L95 295L94 294M97 295L98 296L97 295M102 297L103 298L102 297M208 297L209 298L208 297M105 298L106 299L105 298M205 298L206 299L205 298M202 299L203 300L202 299z"/>
<path style="fill:#1694b2; stroke:none;" d="M113 300L114 301L113 300z"/>
<path style="fill:#fe973b; stroke:none;" d="M115 301L116 302L115 301M195 301L196 302L195 301M122 303L123 304L122 303z"/>
<path style="fill:#1694b2; stroke:none;" d="M125 303L126 304L125 303z"/>
<path style="fill:#fe973b; stroke:none;" d="M187 303L188 304L187 303M180 304L181 305L180 304M136 305L137 306L136 305M174 305L175 306L174 305M145 306L145 307L148 307L145 306M149 306L149 307L152 307L149 306M153 306L153 307L156 307L153 306M157 306L157 307L160 307L157 306M161 306L162 307L161 306M164 306L164 307L167 307L164 306z"/>
</svg>
